<?xml version="1.0" encoding="utf-8"?>
<!-- Generator: Adobe Illustrator 23.0.2, SVG Export Plug-In . SVG Version: 6.00 Build 0)  -->
<svg version="1.1" id="Capa_1" xmlns="http://www.w3.org/2000/svg" xmlns:xlink="http://www.w3.org/1999/xlink" x="0px" y="0px"
	 viewBox="0 0 100 100" style="enable-background:new 0 0 100 100;" xml:space="preserve">
<style type="text/css">
	.st0{fill:#FFFFFF;stroke:#16152D;stroke-miterlimit:10;}
	.st1{fill:#16152D;}
</style>
<g>
	<path class="st0" d="M90,51.3C90,78.8,77.5,90,50,90c-27.5,0-40-11.2-40-38.7S22.5,10,50,10C77.5,10,90,23.8,90,51.3"/>
	<path class="st1" d="M53.7,74V52.1h7.3l1.1-8.5h-8.5v-5.4c0-2.5,0.7-4.2,4.2-4.2l4.5,0v-7.6C61.7,26.2,59,26,55.9,26
		c-6.5,0-11,4-11,11.3v6.3h-7.4v8.5h7.4V74H53.7z"/>
</g>
</svg>
