<?xml version="1.0" encoding="utf-8"?>
<!-- Generator: Adobe Illustrator 23.0.2, SVG Export Plug-In . SVG Version: 6.00 Build 0)  -->
<svg version="1.1" id="Capa_1" xmlns="http://www.w3.org/2000/svg" xmlns:xlink="http://www.w3.org/1999/xlink" x="0px" y="0px"
	 viewBox="0 0 100 100" style="enable-background:new 0 0 100 100;" xml:space="preserve">
<style type="text/css">
	.st0{fill:#16152D;stroke:#FFFFFF;stroke-width:0.5;stroke-miterlimit:10;}
	.st1{fill:#FFFFFF;stroke:#16152D;stroke-miterlimit:10;}
</style>
<path class="st0" d="M37.1,90H12.8c-3.4,0-6.2-2.5-6.4-6L2.7,37.5c-0.3-3.5,2.5-6.6,6.2-6.6h28.4c2,0,3.6,1.7,3.6,3.6v51.8
	C40.8,88.3,39.2,90,37.1,90z"/>
<path class="st1" d="M94.7,58c2.1-2.3,2.3-5.8,0.4-8.3l-1-1.3c-0.3-0.6-0.3-1.2,0.1-1.7l1.4-1.7c2.1-2.3,2.3-5.8,0.4-8.3
	c-1-1.3-2.5-2.1-4.2-2.1H79.1c0.8-2.4,1.1-7.1,1.1-12.9v-3.2c0-4.7-3.9-8.7-8.7-8.7s-8.7,3.9-8.7,8.7v3.2c0,3.1-0.8,12.9-9.4,12.9
	H40.9V86h47.9c1.7,0,3.2-0.8,4.2-2.1l0.3-0.4c1.8-2.3,1.8-5.5,0-7.8L92.1,74c-0.3-0.6-0.3-1.2,0.1-1.7l1.4-1.7
	c2.1-2.3,2.3-5.8,0.4-8.3l-0.9-1.2c-0.3-0.6-0.3-1.2,0.1-1.7L94.7,58z M69.2,29.8c-2.4,0-4.3-2-4.3-4.3s2-4.3,4.3-4.3s4.3,2,4.3,4.3
	S71.6,29.8,69.2,29.8z"/>
</svg>
