<?xml version="1.0" encoding="utf-8"?>
<!-- Generator: Adobe Illustrator 23.0.2, SVG Export Plug-In . SVG Version: 6.00 Build 0)  -->
<svg version="1.1" id="Capa_1" xmlns="http://www.w3.org/2000/svg" xmlns:xlink="http://www.w3.org/1999/xlink" x="0px" y="0px"
	 viewBox="0 0 100 100" style="enable-background:new 0 0 100 100;" xml:space="preserve">
<style type="text/css">
	.st0{fill:#FFFFFF;}
</style>
<g>
	<path class="st0" d="M77.7,19.2H22.3c-6.8,0-12.3,5.5-12.3,12.3v36.9c0,6.8,5.5,12.3,12.3,12.3h55.4c6.8,0,12.3-5.5,12.3-12.3V31.5
		C90,24.7,84.5,19.2,77.7,19.2z M73.8,41L52,47.6c-0.5,0.2-1.1,0.2-1.6,0.3c-0.1,0-0.3,0-0.4,0c-0.1,0-0.3,0-0.4,0
		c-0.5,0-1.1-0.1-1.6-0.3L26.2,41c-3-0.9-4.5-3.7-3.5-6.2c1.1-2.5,4.4-3.8,7.4-2.9L50,38l19.8-6c3-0.9,6.3,0.4,7.4,2.9
		C78.3,37.4,76.8,40.1,73.8,41z"/>
</g>
</svg>
